[
    {
        "id": "1",
        "icon": "require('../../assets/images/skills/electrician.png')",
        "uri": "http://slrgroup.org/mhowbazar/img/mhowmart_electronics.png",
        "text": "Electrician"
    },
    {
        "id": "2",
        "icon": "require('../../assets/images/skills/plumber.png')",
        "uri": "http://ewertplumbing.com/wp-content/uploads/2015/04/qc-plumber-icon-2.png",
        "text": "Plumber"
    },
    {
        "id": "3",
        "icon": "require('../../assets/images/skills/tutor.png')",
        "uri": "https://cdn0.iconfinder.com/data/icons/science-10/450/scientist-128.png",
        "text": "Tutor"
    }
]